*** Life<FredkinCell> 33x22 ***

Generation = 0, Population = 39.
-----0----------------
-------00--------0-0--
----------------------
-----------0----------
-----0----0-----------
-0--------0-----------
----------------------
----------------------
-------0--------------
----------------------
------0-----0---------
-----------------0---0
----------------------
---0------------------
----------------------
-0---------0----------
------------------0---
--------0-------------
--------------------0-
-----------------0----
-------------0--------
------0-----0---------
----------------------
---0--0------------0--
----------------------
----------------------
---------------0------
--0---0---------------
0---------------------
-------------00-0-----
------------------0---
--0-------------------
--0-----0-------------

Generation = 8, Population = 135.
-4-----1-----1--------
12-------232---210-0--
-----23---3-0---------
---0-------2-----0-0-0
-20----------0----0---
--01-1-360-------110--
-----0----------------
-0---------2----------
-----4---------0--0---
-------1---------0-0--
0---0---------0-------
---------2-0-0-0-0-0--
-----2----2--1--------
-0-0--0---021---------
----------------------
-----01--3------------
-------0--1-------0---
1---------------1-----
------1--------00-----
--2---2--3-------1-2-0
1----1---------------1
0--43--------0--1---0-
------------------1---
0120-------1--3--0----
--2-----1---------0---
--------0-------------
--1----02-----------12
1-3-0-----0---1--1----
------1-1----0----4---
-----0--3---524-1---11
4---------3-------3---
--212-----2--------0--
2---2-----2----22-----

*** Life<FredkinCell> 16x7 ***

Generation = 0, Population = 15.
-------
------0
--0---0
--0----
0------
-0-----
-------
-0-----
-------
0-0---0
--0----
--0-0--
-------
----0--
-------
-0-----

*** Life<FredkinCell> 4x21 ***

Generation = 0, Population = 11.
0----0-----0--00-----
----------------0---0
--0------------------
00------------0------

Generation = 5, Population = 37.
-200-00--1-3----01-10
4---0000-000--10-01--
0020--20-----0-3----0
15--1----0----1------

Generation = 10, Population = 37.
---3--0-2--432-4312--
-402-20-21----------1
-22--33--0-2-11810--0
2-1--51--211---------

Generation = 15, Population = 41.
07-----252--43--4--4-
-7-4--22--0--2--206-6
-----6----15-3-+3-333
386225-2-3--223--00--

Generation = 20, Population = 43.
----3-2-6-4--35-5--43
--3-42--4-1--54--3--8
733128613-38--2+---35
-+9---2-43---56-11--3

Generation = 25, Population = 39.
1----42-7--+-3557-3--
9-467-5--4-1-8---48--
-651--82-23+1--+-3---
----5853-85----1-2---

*** Life<FredkinCell> 32x43 ***

Generation = 0, Population = 37.
-------------------------------------------
---------------0-----0---------------------
----------------------------------------0--
--------------------------------0----------
--------0----------------------------------
-------------------------------------------
--------0----------------------------------
0----------0-------------------------------
------------------0-------------0----0-----
------------0------------------------------
-----------0------------00-----------------
-----------------------------0-------------
-------------------------------------------
-------------------------------------------
-0---------0-------------------------------
-----------------0-------------------------
----0--------------------------------------
----------------------------------0------0-
---------------0---------0-----------------
-------------------------------------------
------------------0------------------------
---------------------------0---------------
-----------------------------------------0-
----------------------0--------------------
----0--------------------------------------
-------------------------------------------
--------0---------------0----------0------0
----------0----------------0----------0----
-------------------------------------------
-------------------------------------------
---------------------0---------------------
-------------------------------------------

Generation = 8, Population = 138.
--------0---------0-------------0----0-----
-------0----00---------0-----1-------------
--------0--0------------01------0-----0----
------------------------0----1--1-------1--
0---------------0-----------------------2--
---------------2-----0---------------------
01---------2----1--------------------------
---0--3-2--------2-0-----------------------
----1-----2-------------2-2--2----------31-
----0----------0----01------------0------1-
---2-----------103-3-----1------21------1--
---------------------1----------0----1-----
--------2---------0------------------------
---------------------------0---------------
---2-3--31---------1---------------------0-
0--------0-1----------0--0-----------------
--1-1-------0-----1-------------1----1-----
------------1-------------1------1---3----0
-------10--0-----1-----0-1-------0-1------0
----------0----------------3-0--------2----
----------1---------------0----------------
-------------------0---------------1-------
-1---------1---------1-----------2---0-----
--------------1--0------------0------------
--0-0-------2------------------------------
----------------------------------0------0-
0--------------1-----2---1-1----0-0-0------
--0---------------00----------0----0----2--
------------------1------------------------
----------2---------------------------2----
--------1----0----------2----1-----0-----02
----------------------1--------------------

*** Life<FredkinCell> 46x49 ***

Generation = 0, Population = 41.
--------------0----------------------------------
-----0-----------------------0-------------------
-------------------------------------------------
-------------------------------------------------
-------------------------------------------------
-------------------0-----------------------------
---------------------------------------0---------
-----------------0-------------------------------
----0-------------------------0------------------
----------------------------------------------0--
-------------0-----------------------------------
-----------------------0-------------------------
--------0----------------------------------------
-------------------------------------0------0----
------------------------0------------------------
-------------------------------------0-----------
------------------------0----0-----------------0-
---------------0----------------0----------------
------0------------------------------------------
----------------0----------------0-----0---------
-------------------------------------------------
------------------------------------0------------
-------------------------------------------------
-------------------------------------------------
--------------0----------------------------------
-------------------------------------0-----------
-------------------------------------------------
--------------------------------------0----------
-----0--0----------------------------------------
-------------------------------------------------
----------0--------------------------------------
--------------------------------------0----------
-------------------------0---------------------0-
-------------------------------------------------
------------------------0------------------------
--------------------------------------0----------
-------------------------------------------------
-------------------------------------------------
-------------------------------------------------
--0----------------------------------------------
-------------------------------------------------
---------------------0---------------------------
-----0-------------------------------------------
-------------------------------------------------
-------------------------------------------------
---------------------------------------0---------

*** Life<FredkinCell> 24x29 ***

Generation = 0, Population = 13.
-----------------------------
-----------------------------
-------------------0---------
-------------------0---------
-----------------------------
---0-------------------------
--------------0--------------
-----------------------------
-----------------------------
-----------------------------
--------------0--------------
-----------------------------
--0-----------------------0--
---0-------------------------
-----------------------------
-----------------------------
----------0-----------0-0----
--0--------------------------
-----------------------------
-----------------------------
-----------------------------
-----------------------------
-----------------------------
----------0------------------

Generation = 8, Population = 41.
--------------2--------------
---0-------------------------
-----------1--2------------0-
-----------0-------1-------0-
--0----------------2------0--
-----------0-----------------
------0---------------1------
-----------------------------
----------0-----------0-0----
--1--------------------------
------0------------0--0------
-------------------0---------
----2-----0-------0-----0----
-----------0-----------------
--------------0--------------
----------1------------------
--1-----------0-0-0-------0-0
----3------------------------
--------------0--------------
-----------------------------
--1-----------------------0--
---1-------------------------
-----------------------------
------------------0----------

Generation = 16, Population = 50.
----------2-----------0-0----
--10-------------------------
--20-------------------3--5--
---1-------------------1-----
--------------1--------------
-----------4-------5---------
0---------------------------1
----------1------------------
--------------1--------------
---0------2------------------
0---------------------------0
-------------------1---------
----------5-1---1-20---------
-----------1-------4---------
-----------------------------
--4--------------------------
----3-3-2-0-------0-1-0-0-0--
------------1-----3----------
-------------------0---------
---4---------------0---------
--3-----------------------0--
---4-------------------------
-----------------------------
----1---------------------1--

*** Life<FredkinCell> 5x24 ***

Generation = 0, Population = 39.
0-00-0---0--0-----0--0--
00----0-0--00-0--00-----
--0-00-000---------0---0
---0--0---------00----0-
--0--0---000--00-----00-

Generation = 2, Population = 61.
212--0-00-102-1-0-2-10--
0-1-1---21--000112-00-0-
--0-22---2--1-10-00---00
0---010----10--0-2-10---
0--0---0-20---2201--120-

Generation = 4, Population = 68.
212--00--130-1-121-1-2--
2----100---1-0-332---12-
01--420-141--11---21-102
--10--20--0-01--221-00--
-1-001--04211144-11--22-

Generation = 6, Population = 61.
----1---13-02--141---40-
2---230-2-13101-5----3-0
--10--2-3-1-1-31022---2-
-1---322-10-03-0-4--22-1
2110-30-24-13-46---1----

Generation = 8, Population = 58.
---23-12--4---23-3--24-0
22-0230---151---53111--0
--325--------2332-4--32-
1-----2-01-3----462---21
4-1---0-4-4-3-6--221-33-

Generation = 10, Population = 61.
-2--3--4-56----5----26-2
-4--23-12-1530-4--311---
-2-4-3215--0-43--3--0-2-
-321-4-303--1500-8--34--
6-120---6-4-326-0--3-5-0

Generation = 12, Population = 60.
--4-5--6--6-3-47--31---2
-4-1-----2-7-0--645---3-
1-566-2--412--34--4---2-
2----6430503--025+-23-33
6-1---108-4-3--7--4-2730

Generation = 14, Population = 74.
--4351-62-61336----33-1-
34-3--1-3-19-0-6-47-2-51
33--85-166-4--3--5-2152-
243-084--70--602-+343--3
--1413128--3-4--02442-50

*** Life<FredkinCell> 34x40 ***

Generation = 0, Population = 3.
----------------------------------------
----------------------------------------
----------------------------------------
----------------------------------------
----------------------------------------
----------------------0-----------------
----------------------------------------
----------------------------------------
----------------------------------------
----------------------------------------
----------------------------------------
----------------------------------------
----------------------------------------
------------------------------------0---
----------------------------------------
----------------------------------------
----------------------------------------
----------------------------------------
----------------------------------------
----------------------------------------
----------------------------------------
----------------------------------------
----------------------------------------
----------------------------------------
----------------------------------------
----------------------------------------
----------------------------------------
----------------------------------------
----------------------------------------
----------------------------------------
------0---------------------------------
----------------------------------------
----------------------------------------
----------------------------------------

Generation = 5, Population = 40.
----------------------0-----------------
---------------------0-0----------------
----------------------0-----------------
----------------------------------------
------------------0-------0-------------
-----------------0-0-----0-0------------
------------------0-------0-------------
----------------------------------------
----------------------0-------------0---
---------------------0-0-----------0-0--
----------------------0-------------0---
----------------------------------------
--------------------------------0-------
-------------------------------0-0------
--------------------------------0-------
----------------------------------------
------------------------------------0---
-----------------------------------0-0--
------------------------------------0---
----------------------------------------
----------------------------------------
----------------------------------------
----------------------------------------
----------------------------------------
----------------------------------------
------0---------------------------------
-----0-0--------------------------------
------0---------------------------------
----------------------------------------
--0-------0-----------------------------
-0-0-----0-0----------------------------
--0-------0-----------------------------
----------------------------------------
----------------------------------------

Generation = 10, Population = 47.
----------------------------------------
--------------------0---0---------------
----------------------------------------
--------------0-------0-------0-----0---
----------------------------------------
------------0---0-----------0---0-0---0-
----------------------------------------
--------------0---------------0-----0---
----------------------------------------
----------------------------------------
----------------------------------------
----------------------0-----0-------0---
----------------------------------------
--------------------0---0-0---0---0---0-
----------------------------------------
----------------------0-----0-------0---
----------------------------------------
----------------------------------------
----------------------------------------
------------------------------------0---
------0---------------------------------
----------------------------------0---0-
----0---0-------------------------------
------------------------------------0---
------0---------------------------------
----------------------------------------
----------------------------------------
----------------------------------------
0-----0-------0-------------------------
----------------------------------------
0-0-0---0---0---0-----------------------
----------------------------------------
0-----0-------0-------------------------
----------------------------------------

*** Life<FredkinCell> 36x27 ***

Generation = 0, Population = 7.
---------------------------
-0-------------------------
---------------------------
---------------------------
---------------------------
---------------0-----------
---------------------------
---------------------------
---------------------------
-0-------------------------
-----0---------------------
------0--0-----------------
---------------------------
---------------------------
---------------------------
---------------------------
---------------------------
---------------------------
---------------------------
---------------------------
---------------------------
---------------------------
---------------------------
---------------------------
---------------------------
---------------------------
---------------------------
---------------------------
---------------------------
---------------------------
----------------------0----
---------------------------
---------------------------
---------------------------
---------------------------
---------------------------

Generation = 4, Population = 24.
---------------------------
-----0---------0-----------
---------------------------
---------------------------
---------------------------
-----------0-------0-------
-----0---------------------
------0--0-----------------
---------------------------
-0---0---------0-----------
-1-------1-----------------
--1--0----1--0-------------
---------------------------
-0-------------------------
-----0---------------------
------0--0-----------------
---------------------------
---------------------------
---------------------------
---------------------------
---------------------------
---------------------------
---------------------------
---------------------------
---------------------------
---------------------------
----------------------0----
---------------------------
---------------------------
---------------------------
------------------0-------0
---------------------------
---------------------------
---------------------------
----------------------0----
---------------------------

Generation = 8, Population = 28.
---------------------------
-0---0---0-----0-----------
-----1---------------------
------1--0-----------------
---------------------------
-0-----0---------------0---
---------------------------
---------------------------
---------------------------
-1---0---1-----------------
-2-----------0-------------
00------------0--0---------
---------------------------
---------------0-----------
---------------------------
---------------------------
---------------------------
-0-------------------------
-----0---------------------
------0--0-----------------
---------------------------
---------------------------
----------------------0----
---------------------------
---------------------------
---------------------------
---------------------------
---------------------------
---------------------------
---------------------------
--------------0---------0--
---------------------------
---------------------------
---------------------------
----------------------0----
---------------------------

*** Life<FredkinCell> 27x4 ***

Generation = 0, Population = 22.
----
---0
----
-0--
----
---0
----
----
----
----
--0-
-0--
0---
0-00
----
-0--
0-0-
0---
-0--
---0
----
-0-0
--0-
00--
----
0-0-
----

Generation = 1, Population = 43.
---0
--0-
-0-0
0-0-
-0-0
--0-
---0
----
----
--0-
---0
----
1-00
1-11
0000
----
10-0
1-0-
--00
-00-
-0--
0-0-
00--
11--
-00-
---0
0-0-

Generation = 2, Population = 34.
----
---0
----
---0
----
---0
----
---0
--0-
-0--
----
0-0-
2---
-022
--1-
--0-
-10-
2010
0-11
0---
-10-
1--0
1---
-2--
--1-
000-
----

Generation = 3, Population = 36.
---0
--0-
----
--0-
----
--0-
----
----
----
0---
000-
1--0
3--0
-133
----
---0
--1-
-1--
-0--
1--0
021-
2---
2--0
----
0020
1--0
000-

*** Life<FredkinCell> 18x19 ***

Generation = 0, Population = 27.
--------0-------0--
-------------------
-0-----------------
-------------------
-------------------
-------------0-----
------0------------
--0-----------0----
-0-----------------
0---------0--0-----
0-0----------------
------0-----0--0---
-------------------
------0-------0----
----0---0---0------
------------0--0---
---------------0---
--00------------0--

Generation = 10, Population = 167.
03-103---11-0-----0
0-2---1-1------1---
2-111-3-1--0--2-1--
1---001-0----1-----
--1001---0--1-3-1--
---0---20-1-1--3---
32---00-002-5--1--0
--013-0-2-2-422-32-
11-2----2--030--201
313-31--0---0--01-3
--4161--301-1---0--
51-2211-50-----4--0
101-1-----0--2--311
--122-2-4-036112-11
-18---110-2---3-5--
1-24022--2-1-3---12
0-11-01-00---1--221
-13452-1-1---3-1220

Generation = 20, Population = 134.
----------2001-2211
-1-4---1-11--1320--
40------12---2212--
-------0--12----6--
--6-----3--34041-1-
---4--4-2--0--7713-
-83--3-------33--1-
---7---1--7--344---
3--------41--2-3---
4-------3-22--8434-
63----4---6-------1
--43---2812211---0-
------125----5--52-
-06---4--034-4873-4
--+-1-2---8-7-----3
6-+7--6644--280-524
---63--56--2----4-5
4---5---4----6-66--

*** Life<FredkinCell> 6x5 ***

Generation = 0, Population = 20.
00000
0-000
----0
---00
000-0
-0000

Generation = 5, Population = 16.
103-0
--0--
0----
21113
1--10
1---1

Generation = 10, Population = 17.
2-443
12--2
---42
5216-
--2-3
-51--

Generation = 15, Population = 16.
--74-
17-43
222--
+2-73
-1--4
--3--

*** Life<FredkinCell> 39x37 ***

Generation = 0, Population = 43.
--------------------0----------------
-------------0-----------------------
-------------------------------------
-------------------------------------
----0--------------------------------
-------------------------------------
-------------------------------------
--------------0-------0--------------
------------0-----------------------0
---0---0-----------0-----------------
------------0------------------------
----------------0--------------------
-----------------------0-------------
-------------------------------------
-------------------------------------
-------------------------0-----------
-------------------00----------------
-------------------0-----------------
--------0----------------------------
---------------0---------------------
-------------------------------0-----
------------------------------0------
----------------0--------------------
-------------------0-----------------
----------0-------------0------------
0------------------0--0--------------
-----0----0--------------------------
-----------0---------------------0---
-------------------------------------
0----------0----------------------0--
------------------------0------------
-------------------------------------
---------------0-0-------------------
-------------------------------------
---------------------0---------------
-------------------------------------
---0---------------------0--0--------
-------------------------------------
---------------------------0---------

Generation = 1, Population = 145.
-------------0-----0-0---------------
------------0-0-----0----------------
-------------0-----------------------
----0--------------------------------
---0-0-------------------------------
----0--------------------------------
--------------0-------0--------------
------------00-0-----0-0------------0
---0---0---0-00----0--0------------0-
--0-0-0-0---------0-0---------------0
---0---0---0-0--0--0-----------------
------------0--0-0-----0-------------
----------------0-----0-0------------
-----------------------0-------------
-------------------------0-----------
-------------------00---0-0----------
------------------0-10---0-----------
--------0---------01-----------------
-------0-0-----0---0-----------------
--------0-----0-0--------------0-----
---------------0----------------0----
----------------0------------0-------
---------------0-0-0----------0------
----------0-----0-0-0---0------------
0--------0-0----------00-0-----------
-0---0------------0-00-00------------
0---0-0--0---------0--0----------0---
-----0------0-------------------0-0--
0--------------------------------00--
-0--------0-0-----------0--------0-0-
0----------0-----------0-0--------0--
---------------0-0------0------------
--------------0---0------------------
---------------0-0---0---------------
--------------------0-0--------------
---0-----------------0---0--0--------
--0-0-------------------0-00-0-------
---0---------------------0-00--------
--------------------------0-0--------

Generation = 2, Population = 163.
------------------0-0-0--------------
-----------0---0---------------------
----0---------------0----------------
-------------0-----------------------
--0---0------------------------------
--------------0-------0--------------
----0-------0-----------------------0
---0---0----1---0--00---0------------
----------0-0-1-------------------0-0
-0-------0----0-00---00--------------
----------0-0-0--------0------------0
---0---0------0---00-----------------
------------0--------0---0-----------
----------------0--------0-----------
-------------------00--0-------------
-------------------1---0---0---------
--------0--------01--10--------------
---------------0-0---0---0-----------
------0---0--------10----------0-----
-------------0---0-0----------0------
--------0-------0------------0---0---
---------------0---0--------0---0----
----------0---0---0-----0------0-----
0----------------0-0-00-------0------
-----0--0-0-0---0-----1---0----------
0-0--------0-----0-011--1--------0---
---0---00-0-0-----------0------------
---------0-0-0-----0--0--------0--10-
-----0----0-------------0------------
0-0------0-0-0------------------01--0
---------------0-0----0---0----------
0----------0----------------------0--
-------------0-0-0-0-0--0------------
-------------------------------------
---0-----------0-0-0---0-0--0--------
-------------------------------------
-0---0---------------0-0--1---0------
-------------------------------------
---0-----------------------010-------

Generation = 3, Population = 401.
-----------0---0-0-----0-------------
----0-----0-0-0-0-0---0--------------
---0-0-----0-0-0---0-0---------------
--0-0-0-----0-0-----0----------------
-0-0-0-0-----00-------0--------------
--0-0-0-----00-0-----0-0------------0
-----0-0---0100-0--00-0-0----------0-
--0---0-0-00-000-00110-0-0--------0--
-0-0---0----1-20-0-0000-0--------0---
0-0-----0-0--0--110-011-----------0--
-0-0---0-------00000-0--0----------0-
--0-0-0-0-0--010-01100-0-0----------0
---0---0---0-00-0-000-0-010----------
------------0--0-0-000-0010----------
----------------0-0-100100-0---------
--------0--------0-2-0-10-0-0--------
-------0-0-----00-2-1-1--0-0---------
------0-0-0---0--1-1-1--0-0----0-----
-----0-0-0-0-0-0--0-1----0------0----
------0-0-0-0-0----1-------------0---
-------0-0---0--------------------0--
--------0-0---------0---0--0---------
0--------0-0-0-----0-000-0--0--------
-0---0--0---0-0---0--1-00-0--0-------
--0-0-00---0-0-0-0--002000-0--0--0---
-----0-0--0-0------1-2-0200-----0-0--
0---0-0110-------0--000010-----0-000-
---0-0-0----0-0---0-00-0------0-00210
0-0-0-0--0-0-------0--00-0-----000000
---0-0--0-0---00-0----0-0-0----01200-
--0------0---00---0--0-0-0-0----000-0
-0--------0-00-----0-00-0-0------0-0-
0----------00---------00-0--------0--
---0---------0-------0-000--0--------
--0-0---------0-----0-0---00-0-------
-0-0-0---------0-0-0-0---00-0-0------
0-0-0-0-------------0---00-0-0-0-----
-0-0-0---------------0-0--00000------
--0-0---------------------01-10------

Generation = 4, Population = 155.
----0-----------0-------0------------
---------0---0---0-------------------
--------------------0----------------
--------------1-------0--------------
0-------0---0-------0---------------0
---0---0-----1-----0-----------------
------------2------------------------
----------1-----0---------0----------
----0---0-------0------0--------0-0--
---0---0---0---0-------0-------------
--------0-------1--------------------
------------0-2-----1-0--1-----------
------------0-------1------0--------0
---0---0-----------------------------
--------0---0------------------------
---------------00----1-------0-------
---------------11-------0------0-----
---------------0-------0------0------
----0-------0---0--------------------
-----------0-------------0-----------
----------0--------00---0--0-------0-
0---------------------0---0-------0--
-----0--0-0-0-------0----------------
-----------0-----------1---------0---
------1-------0-----1-------0--0-----
0-0-0------0---0--0----1--1---0---1--
-0----1--1----0-0-------2------------
-------1-------0---0---------0-------
----------0----0-0------0------------
0-0-0--0-------1---0--1-------0-----0
-----0----0---------01------0--------
-----------0---------------------1---
---0-------1-0-----0-0---1--0--------
0----------0----------------------0--
-----------------0------00-1---------
-------------------------------------
-------0-------0-0---0--1--1-1--0----
-------------------------------------
---0-----------------0-0-0--1--0-----

Generation = 5, Population = 399.
---0-0---0---0-0-------0-0-----------
----0---0-0-0-0---0-0---0------------
---------0---00--0-0-00--------------
0-------0---00-0-----0-0------------0
-0-0-----0-0--0------00------------0-
0-0-0-0-----0-0---0-----------------0
---0---0--00----0--0------0----------
----0---00-01--010-----0-0-0----0-0--
-----0---000----10----010-0----0---0-
--0---0-0-0-0-0-1-----110-------0-0--
---0-----0-00-0--0--0-00-0-----------
--------0--01--00--12--00-00--------0
---0---0---0100----0200--10-0------0-
--0-0-0-------------0------0--------0
---0-----0-0-0-00----0-------0-------
--------0---0-0--0--0-0-0---0-00-----
--------------02-0---1---0---0--0----
----0-------0-010-----0------0-------
---0-0-------0---0-----0-0----0------
----0-----------0--10-----00-------0-
0--------0--------011000----0-------0
-0---0--0---0------0-0-000-------0---
0---0-00---0-0-----0-000--0------00--
-----00-0-----0-------0-0---0--00-0--
0-0-00-0-----0----00-0----00-0--000--
-0---0---00-0-0--0-11-0--0-000---0-0-
----00--1-00-0---000-----00--00---0--
-0------000----1-00-0-------0-0------
0-0-0----0-0--0---0---00-0---00-----0
------0-0-----02000----00---00-0---0-
0-0---00-0-----0----12-----0-00--0--0
---0-0-----100-----00----0------0-0--
0-0-0-----0---0---0---0-0-00-0---00--
-0-0------0100---0-0-0--0--00----0-0-
0----------0----0-0----011--0-----0--
-------0-------0-----0---0---0--0----
------0-0-----0---0-0-00-01---00-0---
---0---0-------0-0-----000-000-00----
--0-0---------------0-----01-10-0----

Generation = 6, Population = 451.
--0-0-0-------0-0-0-0-0-0-0----------
-------0------1----0--0--------------
0---0---0---0---0-0-0-1-0-----------0
---0---0-0--1---00-00---0------------
0-0---0-----0-1---0-0-1-----------0-0
-0-------000--1000---00---0----------
0---0-----1-2-0-1---0--0--------0-0-0
--------1--12001--01---10---0--------
--0-----0-1-1-2-2-0--0---0----0-0-0-0
-0--------1-1-1-21--012---0----------
----0-0-0-0-1-1-1-0-1--1---0----0-0-0
----------012-211-1-3-0-1--1---------
----------0-2-1-0-0---1--2---0----0-0
-0-------0--0-000---100--1---0-------
------0-----0-011---1---0--0---0----0
---0---0-----010-102-------0--11-----
----0---0----01-112---1---0--1---0---
-----------0-0-211----------01--0----
--0---0--------00-011------0---0---0-
0--------0---0-0------0---11--0---0--
----00----0-0---001-21---00--0---0---
0-0-----------------0--1-1--0---01--0
---0---10-0-0-----01--1-0--00--0---0-
--0-0----0-0-0-0--0--111-0----01---0-
-0--111--00---0---1-1-2-0-1--10--1---
----0-00-1-0---001-222-121---1---1--0
---01-112-110--0011-0-0-2-1-0--0-----
-----0-1-1-0-0----10-000--00---0--2-0
-0---00-010-001000-0001-0-0-0--------
----0010-0-0-0-3---000--1---11--120-0
-------10-0000-1-00--300000-0-1------
--0-0--0-0-2-1-0---1--0-------00--100
-0-------011-0-0---00---111-0-0------
0-0------0-2-1------------------01--0
---0---0---1-0---0----012-0-1---0----
0----------0----------------------0--
---0-0---0---0-0-----01-112-011---0--
-------------------------------------
-0-0-0-0-------0-0-0-0-00-1-1-1010---

Generation = 7, Population = 600.
-0-----------01----0--1----0---------
0-0---------0020--0-00-0--0---------0
-0---0-0---0100010--1-2-10---------0-
--------0-00-010-1-110-010--------0--
-0---0----0-1-2--0-010200-0------0---
0---0-0-0111012-11--01---0-0----0----
---0-0--0-2-30--2-0----1--0-0--0-----
0-0-0--02012---210-2-00-1--0-00------
---0---01-20-0-0301--1-1----00-------
0---0-0--0------3200-23-------0------
-0-0-------0---0-01---0----10--0-----
----0-0-001-3-3-2---4-10--0200--0----
-0--------10------10---0-300010--0---
0-0---0-0--0--111000---0-2000100--0--
-0-0-0---0-0101---0-2-01--0100-10--0-
--0---------------13--0-0--10-2-00--0
-----0---0-001-------1-0-0---2-0--0--
--0-0-0-0-0--10---010-0---0-1-0----0-
00-0-0-0-0-0--01-01-200----1-0------0
-00-000-0------100-1---0----0--------
--00110---------1-2--2-00--------1--0
----00-00-------00--1---02--1---1-0--
0-0---0210-0---0-0-2--2--001-0-1-001-
---01-00-1--0-0-00---2-2---00---00010
0--02---0110---00-202-3-1--00---02000
-0---01-02-1----1--3-3-2-21--2-00210-
--01-0--3-2-1-0-12--1-1-3020--01000--
-0-0-1-2-2-1-1---0-----100110-0100---
0-0--1--1-1-1--1-1011--01-101--000---
-0-0112--1-1--0-----111----022-02-1--
--0--0-21-1--1---110--1-1-1-102-00-0-
-----00101--0---00-2--1------011012-1
--0-0--001-2---10-0-10002-2---1-0000-
-0-----0010---00-0-00-00-0----00-200-
----0-0-000--10-0-0--01-3----0-01-0-0
-0---0-0-0010--0-0---0-0-0---00-0010-
0-0---0-0-000---0---012-2-3-1-20-010-
-0-----0-0---0---0-0--00-0---0-0000--
0-------0-----0--------11-----2--10--

Generation = 8, Population = 151.
----------------------------0-------0
---0-0-0-----------0-1---------------
----0-------2------------------------
----------------0--------------------
--0---------2----------1-------------
-------------2-----------------------
--------------------0----------------
------0-------0-------1--0----1------
----0--------------00-------1-0------
---0---------0-0---1-------0---------
----0---0-----------1----------------
--------1------1--------1------------
----0----------0---------------------
------------------------------1------
----------------1--------------------
--------------1--1-4--1----------1---
----------01------------0--00-------0
0--0---0---0----------1----0---------
1----1----0-0---0--------------------
-------0---0----1------1---------0---
-----------------------------------0-
0----------0----------0-----------1-0
--------2----------------------------
-----------0-------------0-1---------
--0------------110313-----------1----
------2-1--2--0----4-------0--0------
-01-----4----0----1--0---------------
---1-----------1---0-----1-------1---
---0---------------------0--2--1-----
---1--3-0----------0------0---0-3----
---------------------------0----1----
-------------------3-----------------
-------1-21------------131-0---------
0------------------1--1--------------
---0-0----1--2-----------1--11-------
-----------2---------------------1---
---0-------1-----0--12-----------1--0
0----------0----------------------1--
---------------0-0-0----2----------0-

*** Life<FredkinCell> 28x49 ***

Generation = 0, Population = 2.
-------------------------------------------------
-------------------------------------------------
-------------------------------------------------
-------------------------------------------------
-------------------------------------------------
-------------------------------------------------
-------------------------------------------------
-------------------------------------------------
-------------------------------------------------
-------------------------------------------------
-------------------------------------------------
-------------------------------------------------
-------------------------------------------------
-------------------------------------------------
-------------------------------------------------
-------------------------------------------------
-------------------------------------------------
-------------------------------------------------
----------------------------------------------0--
-------------------------------------------------
-------------------------------------------------
-------------------------------------------------
-------------------------------------------------
-------------------------------------------------
-------------------------------------------------
-------------------------------------------------
-------------------------------------------------
-----------------------0-------------------------

*** Life<FredkinCell> 31x37 ***

Generation = 0, Population = 23.
-------------------------------------
-------------------------------------
-------------------------------------
-------------------------------------
-------------------------------------
-----------------------0-------------
----0-0------------------------------
------0---------------0--------------
-------------------------------------
-------------------------------------
-------------------------------------
-------------------------------------
-----------0-------------------------
-------------------------------------
-----------------------------0-------
-------------------------------------
-------------------0------------0----
-------------------------------------
--------------------0-------------0--
-----------------0-------------------
-------------------------------------
--------------------0------0---------
----------0-----------------0--------
---------------0---------------0-----
-----------0----0--------------------
--------------0----------------------
-------------------------------------
----------------------0--------------
----------------------------------0--
-------------------------------------
-------------------------------------

Generation = 7, Population = 473.
---0--10-------------00--0-----------
--0--0-00-----------01200-0----------
-0--1-3-10---------0000000-0---------
0--0-0-0-00-------011012100-0--------
--1-1-3-1-10-----00000000000-0-------
00-0-0-0-0--0---0120023001200-0------
003-2-4-3----0--00000000000000-------
20-0-0-0----1--0-002100320021--------
1-2-2-3----0--0-0-0000000000--0------
00-0-0----1--0-0-0--0121011--0-00----
-01-1----0--0-0-0----00000--0-0110---
--00----1--0-0-0----1-021--0-00000---
---0---0--0-0-0--0-0-1-0--0-01100-0--
----0-1--0-0-0--0--00-10-0-00000-0-0-
--------0-0-0--0--1--010--0-100-1-1-0
-------0-000--0--1----0-0--100-0-0-0-
--------0120-0-02------0-0-02-100-0--
--------000---02-----------0-201000--
-------0-0-------------2-00110310--0-
------0-00--0-11------0--00102010---0
-----0-00121--003----20-00001100-0---
----0-0000---2-143--00--1211010-0---0
---0-0021--4--2-001-2--0-010-0-0-----
----0000--2-0--2-1----0-0-0-0-0------
----0120-2-0-2--02--40-0-000-0-----0-
-----00-1-2-2-0-2-11300--1210---0-0-0
------01-0-2-0--200-20--0-200--0---0-
-------00-2-0--1---00--0-0-2-10------
--------01-0-------0----0-0000-----0-
---------00----2--10-----0-0----0-0-0
----------0-----100-------0--0-0---0-

*** Life<FredkinCell> 16x42 ***

Generation = 0, Population = 17.
--------------------0------0-0------0--0--
------------------------------------------
------------------------------------------
--0--------------------0------------------
------------0--------------------0--------
--------------0---------------------------
------------------------------------------
-----------------------------------0------
--------------0---------------------------
---0--------------------0-----------------
-----------------------------0------------
------------------------------------------
------------------------------------------
------------------------------------------
------------------------------------------
----------------0-------------0-----------

Generation = 10, Population = 173.
----------0-2---10-----1-------2-0-2-12-2-
-01-10----0-1--12-----01--0----1----------
----1-----1-2------000---0-1---1--------20
0-204---2---103--1---01-11---2---1--------
--1---3-----1-----0-2-21---------0--3----0
--2-----2-1----01---2--31--2--01---------1
----0-1-----------2------------2--0-2113--
---2--1----0--2---2---1--0--221--------0-0
----0---0---------0--01-01-----2--0-1-11-1
-01--0---0---0--0------0---10---1-0------0
------0-----1------01-12---0-0---1-21-----
0--10------0--0------1---0----0-1---------
----------0---1------0-------0-0---0-0----
--00----0---2---1-----00-----------1--0---
------------0--------------0---0-0--------
-0-0-00-0-0---1-----0-0-0--------0-0110-0-

Generation = 20, Population = 179.
0-0----020-----13--1----11-1-2--41--54-336
0--0--------1---2---1---2-0-------0-------
----2------0-05-----3--1--------2---3--5-3
--------3--1--8-1--0--2-2--------4-------3
----2-3----0--5-----50-224---703-4--4----2
--6-1--03--4--3-3--24-----4-3-3---05----1-
----------2-50----3------4-------------4--
--1---------1-43--2-2-------33-0-----4----
----2-----5-2----12-------2-35---442------
1-231--1--2-1-----2-----2-----21----2--20-
--------20----2-11--3------2-1-----463-0-2
---3--2---1---3---2-----0--1----14-0--0---
1-------2-----4-3------------00------2----
------0-1--2---------------0----0--4--3-0-
------------31--1---1--112-0-1-00--13---00
--0-0-----0---1---1---------1-----2-3-----

*** Life<FredkinCell> 37x42 ***

Generation = 0, Population = 14.
------------------------------------------
------------------------------------------
------------------------------------------
------------------0-----------------------
------------------------------------------
------------------------------------------
--0---------------------------------------
-------------------------------0----------
-0----------------------------------------
----0-------------------------------------
------------------------------------------
------------------------------------------
------------------------------------------
------0-----------------------------------
------------------------------------------
------------------------------------------
----------0-------------------------------
------------------------------------------
------------------------------------------
------------------------------------------
------------------------------------------
------------------------------------------
------------------------------------------
------------------------------------0-----
------------------------------------------
---------------0--------0---0-------------
--0---------------------------------------
------------------------------------------
------------------------------------------
------------------------------------------
------------------------------------------
------------------------------------------
------------------------------------------
------------------------------------------
---------------0----0---------------------
------------------------------------------
------------------------------------------

Generation = 5, Population = 197.
------------------------------------------
--0---------------------------------------
-0-0----------0-------0--------0----------
-00----------0-0-----0-0------0-0---------
0-0-0---------0-------0--------0----------
00-0-00-----------------------------------
-2--10-0----------0--------0-------0------
00---00----------0-0------0-0-----0-0-----
--1-0---0---------0--------0-------0------
--1------0--------------------------------
00-0--0-0----------------------0----------
-00-------0-------------------0-0---------
0---0----010-------------------0----------
-----0---020------------------------------
--0-0-----0-------------------------------
------0-------0---------------------------
-----020-----0-0--------------------------
-----010------0---------------------------
------0-----------------------------0-----
----------0------------------------0-0----
---------0-0---0--------0---0-------0-----
--0-------0---0-0------0-0-0-0------------
-0-0-----------0--------0---0---0-------0-
--0----------------------------0-0-----0-0
-----------0-------00---0---0-----------0-
0-----0---0-0-----0110-0-0-0-0-0-0--------
-0---0-0---0-------00---0---0---0---0-----
0-----0----------------------------0-0----
---------------0--------0---0-------0-----
--0-----------010---0--0-0-0-0------------
-0-0----------010--0-0--0---0-------------
--0------------0----0---------------------
------------------------------------------
-----------0----0--0----0-----------------
----------0-0--0-11-0--0-0----------------
-----------0---00--00---0-----------------
--------------0-0--0-0--------------------

Generation = 10, Population = 204.
13211-------------------------------------
--1---0---0-------0-------0---------------
-20---------------------------------------
----1-0-0---0---0---0---0---0-------------
----0-----1-------------------------------
----2---0-1-------0----0--0------------0--
--1--31-110-0-----------------------------
--0---2-----0--------0---0-----------0---0
---11---1-311-----------------------------
0---1-----2---0---0----0---------------0--
-----1---00-------------------------------
1-2---------0-0-0---0---------------------
--1---------------------------------------
0-2---------1---0-0------------0----0-----
111-0-------------0-----------------------
0---1---------00--------0---00---00---0---
1--11-----------0---0---------------------
--0---1------0---0----0-------00----0-----
010-1-------------0-----------------------
----0-1--------0--------0---0-------------
--0---------------------------------------
----0---0-------------------0-----------0-
----------0-------------------------------
------00--------0---1--0--0---0-0---0-0---
----0---0-0-0--0----1---------------------
-----0---0----0------21--0--0-0-------0-0-
--0---0-0-0-00---00---0-------------------
-------0--------0---1--0--------0---0-----
----0-----0----2----1---------------------
------------------------------------0-----
---------------1----0---------------------
---------------3--------1---0-----0---0---
--0----0----00---00---00----1-------------
-------------0---0----0-------0-----0-----
0---00---00---03----20---00---0-----------
---------------0--------0---1-------------
--0----0----0----------0----0-------------

Generation = 15, Population = 785.
3----42---10-----------0------0--------0--
-0--5030-0-00---------0-0----0-0------0-0-
--1150-0--2-10-------0-0-0--0-0-0----0-0-0
--0-4-100--0-00-----0-0-0-00-0-0-0--0-0-0-
-4-1012002--2-10---0-0-0-0000-0-0--0-0-0--
0-204-30302--0-00-0-0-0-001100-0--0-0-0---
-22044-02100--1-1--0-0-00000000--0-0-0----
--10303-1010---0110-0-001221210-0-0-0-----
---21351-14-3---2-00-000000000-0-0-000----
--4-20301--0----1--1001100110-0-0-01100---
-0-0-1002-1-----00--0000-00000-0-0000000--
1---1-00-------2-02--21-0-00110-011002200-
-----0----2---0-1--0---0-0-000000000000000
1------0-0-0-2-1----10--0-0-001-1001100110
-1---01-1-4---1-----00---0-0-0-0-00000000-
--0-1030-0---------2--0---0-121-2-310110--
----32323-----2---0----0---00000-0-0000---
--1030202----2-0-1------0-0210132-1-10----
-10-2250-0--0-2-----------00000000-0------
00-0-03-1-21-0-1-0--0---00-00220011--0----
0-0-0--0-0301-0----0-0-0000-0000000-0-0---
10-0----221011---20-1--13200-00210---0-0--
-21-----103011--0100--1-00000-000-----0-0-
-------2-0211-020002-0-2-01100-0-------0-0
-01---4-0-12-01-000-4-0-1-00000-0-------0-
0-00-2-0-1--12---3-145-0-2-23200-0--------
-0-01-1----------332312-1-1-000-0-0-----0-
--0-00---0---0--0-032001-0-2-0-0-0-0---0-0
---0-0--0-1-0-25-1-260122-0-100-0-0-0-0-0-
----0101-1---2221-0-021012-03000-0-0---0--
----12212----32611-2-231111020100-0-------
---0-0020---0-06200-0-0210-0101000-----0--
--1-1-11-1-4-1-33235-1-34-1-400010----0-0-
-000-0--0-0-0-0-02212-1--0-0-0103-1--0-0-0
12013----3-4-2---55542--3-3---20-0-00-0-0-
0000------0-0-----0220-0-0-----02-10-0-0--
-01--------2-------32---2-------100---0---

Generation = 20, Population = 195.
------2-------0---------------------------
--1-5-4---1-------------------------------
-5--------2-1-----0-----------------------
0-----1--------0--------------01----010---
--4-------3--1---1------------------------
0-----3-3-3----0----1---0---0-------------
-45--4--2-----3-3-----0-------------------
--1--------0------00-------2----1203----10
3-----5--1---3---1---0--------------------
----2-3-1--0--1-1--21-1-----1---1---------
10----0-----0-----1-----------------------
--------------14------1--------0----02----
--2-0--------0---0--------0---------------
----1-----4-1--1--4-1---0-1-0-------------
--1------------0----1---------------------
------------------------------------------
5-------4-------------2-------0-----------
--------2-------------1-------------------
--0--------0----0--1----0-----------------
--------------0-----3-1--------00---------
-3--0----------1----0-----0---------------
----3---2---1------------------4----------
2-----0-----2--1--0-5---------------------
----------------0-0-----1--11------10-----
-2---0-----3----1--1----1-----------------
0---1-0-----4---3----------2-------0------
--0-----1-----0-4-----2-------------------
--------------------2----------01---------
-00-------1----5----6---------------------
--1-0---0-1-1--2--------1---3--0----------
----2-------0-----1------------0----0-----
------------------------------------1-----
0-------------0---------------------------
------1----0-------12---1---2---3---------
1-------1------------------1----2--1----0-
--------------------------------2---2---0-
--1-0-----0--------------------0----1-----

Generation = 25, Population = 502.
--3-3-----3022-00-0-0---0---0-------------
--20-0---0-02-1100-0-0-0-0-0-0------------
1522----------00--0-1---0-0-0-----0-------
-02--0---0-0-----2-0-----0-0-----0-1------
----0-2-0-5-2-----2---0---0-------0-------
-0-05------2-2------10-0--1---------------
--5186-1--1-3------0-10--0-000----------0-
----4-3-1-----------32---3-2550--------3-2
--5-3---1-4-6---3-3---010220-0--0---0---0-
-0-03-411140-2------6-1-1013-0-3-2-2-2----
---0-130-2400-1----040-0--0-0---0-0-0-----
-0-01----030---6-2-11----0-0-----1-2------
0-2-2-----2---0-1-3-------1---0---0-------
--30-0------13---15----------0-1----------
-3401------0-01100-02---------1-0---00----
--0----------02500-220---------0-231121---
5-3-4---5-11-1---21--0--1---1--010-000----
-010-0------2-3201-141---0-2301-2-1-------
-2-02-5-----0--2-3310-0---0010-0----------
--0----0-0-1-----030---0-0-00-------------
------0-0-3-------0---2---0---------------
----41---21----------1-1------------------
---0-10-30-23---------102---0----------00-
--1--0-2-0-140--------2-311333--------1210
024--2---32--2-32---8-1-20---0----------0-
--2-4--0-1-0521-63-1-51-73-353-3----1-0-0-
1-1-2----1-24-12--4-3--010-00-0-0--020-0--
----------1----3-0-3------0----2---110----
1-------------3---0-----------------1-----
-04----------4-3--------------------------
01-0----------2-----2----------10---1-----
-0--------1----7--0230--------1-10-040----
02501--101-42-04-2---1-34---4-0-3--1-0----
-000-01221-0-10-13-2521-20-0301-80-030-02-
----5--013-42--425-54-13---1-1-32---3-22-0
----------0-------0----0---040----------30
----------------------------2-----------1-

*** Life<FredkinCell> 18x31 ***

Generation = 0, Population = 16.
-------------------------------
------0-----------------0------
----------------0--------------
-------------------------------
0---------------0--------------
-------------------0-----------
------------------------------0
----0--------------------------
---0---------------------------
-------------------0-----------
--0----------0-----------------
-------------------------------
------------------------0------
-0-----------0-----------------
------------0------------------
-------------------------------
-------------------------------
-------------------------------

*** Life<FredkinCell> 45x50 ***

Generation = 0, Population = 4.
--------------------------------------------------
--------------------------------------------------
--------------------------------------------------
--------------------------------------------------
--------------------------------------------------
--------------------------------------------------
--------------------------------------------------
--------------------------------------------------
------------------------------0-------------------
--------------------------------------------------
--------------------------------------------------
--------------------------------------------------
--------------------------------------------------
--------------------------------------------------
--------------------------------------------------
--------------------------------------------------
--------------------------------------------------
--------------------------------------------------
--------------------------------------------------
--------------------------------------------------
--------------------------------------------------
--------------------------------------------------
--------------------------------------------------
--------------------------------------------------
-------------------------------------0------------
--------------------------------------------------
--------------------------------------------------
--------------------------------------------------
--------------------0-----------------------------
--------------------------------------------------
--------------------------------------------------
--------------------------------------------------
--------------------------------------------------
--------------------------------------------------
--------------------------------------------------
--------------------------------------------------
--------------------------------------------------
--------------------------------------------------
--------------------------------------------------
--------------------------------------------------
--------------------------------------------0-----
--------------------------------------------------
--------------------------------------------------
--------------------------------------------------
--------------------------------------------------

Generation = 7, Population = 243.
--------------------------------------------------
------------------------------0-------------------
-----------------------------0-0------------------
----------------------------0-0-0-----------------
---------------------------0-0-0-0----------------
--------------------------0-0-0-0-0---------------
-------------------------0-0-0-0-0-0--------------
------------------------0-0-0-0-0-0-0-------------
-----------------------0-0-0-0-0-0-0-0------------
------------------------0-0-0-0-0-0-0-------------
-------------------------0-0-0-0-0-0--------------
--------------------------0-0-0-0-0---------------
---------------------------0-0-0-0----------------
----------------------------0-0-0-----------------
-----------------------------0-0------------------
------------------------------0-------------------
--------------------------------------------------
-------------------------------------0------------
------------------------------------0-0-----------
-----------------------------------0-0-0----------
----------------------------------0-0-0-0---------
--------------------0------------0-0-0-0-0--------
-------------------0-0----------0-0-0-0-0-0-------
------------------0-0-0--------0-0-0-0-0-0-0------
-----------------0-0-0-0------0-0-0-0-0-0-0-0-----
----------------0-0-0-0-0------0-0-0-0-0-0-0------
---------------0-0-0-0-0-0------0-0-0-0-0-0-------
--------------0-0-0-0-0-0-0------0-0-0-0-0--------
-------------0-0-0-0-0-0-0-0------0-0-0-0---------
--------------0-0-0-0-0-0-0--------0-0-0----------
---------------0-0-0-0-0-0----------0-0-----------
----------------0-0-0-0-0------------0------------
-----------------0-0-0-0--------------------------
------------------0-0-0---------------------0-----
-------------------0-0---------------------0-0----
--------------------0---------------------0-0-0---
-----------------------------------------0-0-0-0--
----------------------------------------0-0-0-0-0-
---------------------------------------0-0-0-0-0-0
--------------------------------------0-0-0-0-0-0-
-------------------------------------0-0-0-0-0-0--
--------------------------------------0-0-0-0-0-0-
---------------------------------------0-0-0-0-0-0
----------------------------------------0-0---0-0-
-----------------------------------------0-----0--

*** Life<FredkinCell> 36x24 ***

Generation = 0, Population = 1.
------------------------
------------------------
------------------------
------------------------
------------------------
------------------------
------------------------
------------------------
------------------------
0-----------------------
------------------------
------------------------
------------------------
------------------------
------------------------
------------------------
------------------------
------------------------
------------------------
------------------------
------------------------
------------------------
------------------------
------------------------
------------------------
------------------------
------------------------
------------------------
------------------------
------------------------
------------------------
------------------------
------------------------
------------------------
------------------------
------------------------

*** Life<FredkinCell> 9x48 ***

Generation = 0, Population = 1.
------------------------------------------------
------------------------------------------------
------------------------------------------------
------------------------------------------------
------0-----------------------------------------
------------------------------------------------
------------------------------------------------
------------------------------------------------
------------------------------------------------

Generation = 8, Population = 4.
------------------------------------------------
------------------------------------------------
------0-----------------------------------------
------------------------------------------------
0-------------0---------------------------------
------------------------------------------------
------0-----------------------------------------
------------------------------------------------
------------------------------------------------

Generation = 16, Population = 4.
------0-----------------------------------------
------------------------------------------------
------------------------------------------------
------------------------------------------------
--------0-------------0-------------------------
------------------------------------------------
------------------------------------------------
------------------------------------------------
------0-----------------------------------------

*** Life<FredkinCell> 47x31 ***

Generation = 0, Population = 33.
-------------------------------
--------------0----------------
-------------------------------
-------------------------------
---------------------0---------
-0----------------------0----0-
------------------0-------0----
-------------------------------
--0-----------------------0----
-------------------------------
-------------------------------
-----------------------------0-
-------------------------------
-------------------------------
-------------------------------
------------------------------0
------0------------------------
------------------0-------0----
-------------------------------
-------------------------------
------------------------------0
-----------------0-------------
-------------------------------
-------------------------------
-------------------------------
------0------------------------
-------------------------------
-------------------------------
--------------------------0----
----------------0--0-----------
-------------------------------
-00----------------------------
---------0---------------------
-------------------------------
-------------------------------
--0-----------------0----------
-------------0-----------------
-------------------------------
-------------------------------
-------------------------------
--0--0----0--------------------
-------------------------------
-------------------------0-----
---------0---------------------
-------------------------------
0------------------------------
-----------------------0-------

*** Life<FredkinCell> 43x43 ***

Generation = 0, Population = 25.
-----------0-------------------------------
-------------------------------------------
-------------------------------------------
0------------------------------------------
------------0------------------------------
-----0-0-----------------------------------
-------------------------------------------
-------------------------------------------
-------------------------------------------
-------------------------------------------
-------------------------------------------
-------------------------------------------
-------------------------------------------
-------------0-----------------------------
------------------------0------------------
-------------------------------------------
----------------------------------------0--
-------------------------0-----------------
-------------------------------------------
-------------------------------------------
-------------------------------------------
-------------------------------------------
-------------------------------------------
------------------------------0------------
-------------------------------------------
----------------0--------------------0-----
-------------------------------------------
-------------------------------------------
---------------------0--------------------0
-------------------------------------------
--------------------------0----------------
-------------------------------------------
-------------------------------------------
-------------------------------------------
---------------0-------------------------0-
-------------------------------------0-----
-------------------------------------------
-------------------------------------------
---------0-0-------------------------------
--------------------0------------------0---
-------------------------------------------
-----0------------0---0--------------------
-------------------------------------------

Generation = 2, Population = 90.
---------0-0-0-----------------------------
0------------------------------------------
-----------00------------------------------
0-0--0-0-----------------------------------
----------0---0----------------------------
0--0-0-0-0---------------------------------
------------0------------------------------
-----0-0-----------------------------------
-------------------------------------------
-------------------------------------------
-------------------------------------------
-------------0-----------------------------
------------------------0------------------
-----------0---0---------------------------
----------------------0---0-------------0--
-------------0-----------0-----------------
------------------------0-------------0---0
-----------------------0---0---------------
----------------------------------------0--
-------------------------0-----------------
-------------------------------------------
------------------------------0------------
-------------------------------------------
----------------0-----------0---0----0-----
-------------------------------------------
--------------0---0-----------0----0---0---
---------------------0--------------------0
----------------0--------------------0-----
-------------------0---0--0-------------0-0
-------------------------------------------
---------------------0--0---0-------------0
-------------------------------------------
---------------0----------0--------------0-
-------------------------------------0-----
-------------0---0---------------------0---
-----------------------------------0---0---
---------0-0---0-------------------------0-
--------------------0----------------0-0---
-------0-0-0-0-----------------------------
-----0-------------------------------0---0-
---------0-0-------------------------------
---0---0--------0---0---0--------------0---
-------------------------------------------

Generation = 4, Population = 88.
-------0----0--0---------------------------
-----0-0-----------------------------------
-----------2-------------------------------
--0-1--------------------------------------
--------0--1----0--------------------------
-1-0-----0-0-------------------------------
-------------------------------------------
0------------------------------------------
------------0------------------------------
-----0-0-----0-----------------------------
------------------------0------------------
-------------------------------------------
----------------------------------------0--
---------0-------0-------0-----------------
--------------------0-------0--------------
-------------------------------------------
------------------------------------0-----0
-------------0-------0-------0-------------
------------------------0------------------
------------------------------0------------
----------------------------------------0--
----------------0--------0-----------0-----
-------------------------------------------
--------------------------0-------0--------
---------------------0--------------------0
------------0-------0------------0-------0-
--------------------------0----------------
------------------------------0------------
-----------------0-------1------------0-0--
----------------0--------------------0-----
---------------0------1-------0----------1-
-------------------------------------0-----
---------------------0--------------------1
-------------------------------------------
---------0---------0------0----------1---0-
--------------------0------------0-----2-1-
-------------------------------------------
-----0------------0---0--------------------
-----1-0-----0---------------------------1-
----------------0-------0----------0-0-----
-------------------------------------------
-0---0---1----0-----------0----------------
---------0-0-------------------------------

Generation = 6, Population = 292.
-----1-2-0010110-0-------------------------
--0010-2-0---------------------------------
-------100-220-00--------------------------
01001100-0-0-------------------------------
------0--013-00---0------------------------
110010-0-0-2-0-----------------------------
--------0--10---0--------------------------
0100-0-0-0-0-0-----------------------------
----------0---0---------0------------------
0--0-0-0-0-0---0---------------------------
------------0---------0---0-------------0--
-----0-0-0---0---0-------0-----------------
--------------------0---0---0---------0---0
-------0---0---0---0---0---0---------------
------------------0---0---0---0-----0---0-0
---------0---0---0---0---0---0-------------
--------------------0---0---0-----0---0-0-0
-----------0---0---0---0---0--10-----------
----------------------0---0---------0---0-0
-------------0--0----0---0--01--0----0-----
------------------------0-------------0---0
--------------0---0----0--10--0---00---0---
---------------------0------------------0-0
------------0---0---0---01--0---01--00---0-
-------------------0---0--1-------------0-0
----------0---0---0---0---1---00--10---0---
-----------------0---0--01--0---------0-0-0
------------0---0---0-------0---00---0---0-
-------------------0--00--10--1-----0-0-010
--------------0---0-----------1----0-0-0---
-------------0------01--00--0---0-----001-1
----------------0------------------0-0-0---
---------0-----0------10--0---0------1--0-1
--------------------0------------0---1-0-1-
-------0---0-----0------0---0------0------1
-----0-------------------------0---0-1-2-3-
-----1-0-0---0-----0------0----------0-----
---0---1------------0------------0-0-0-0-1-
---0-3-0-0-0---0-----------------------0---
-0-------0-----------------------0-0-0-0---
-----1-0-1-0-0---------------------------0-
-----------10---------------0------0-0-----
-------0-----0-----------------------------

Generation = 8, Population = 92.
---1---------------0-----------------------
-----0-2-----------------------------------
------------2------------------------------
2-----2-1----------------------------------
----0---------------0----------------------
-1-------------0---------------------------
-----------3------------0------------------
-------------------------------------------
-----------1----------------------------0--
-------------------------0-----------------
-------------------------------------------
0------------------------------------------
------------0------------------------------
-------0-------------0---------------------
----------------0---------------0----------
------------------------------0------------
--------------------------------0-----0----
----------------10---------------0---0-----
-------------------------------------------
-------------------------------------------
---------------------1--------------------0
-------------1-----------------------------
------------------------1-1----------------
----------------------0---------------1----
----------------------------------------0--
--------0---------------10---1-----------0-
---------------0-------------------------1-
-------------------------------------0-----
-------------0---------------1----0-0------
-------------------------------------------
---------0-0------1---------------0--------
--------------------1---------1--------2---
-------------------------------------------
-----0----------0-0---1--------------3-----
-------0---------------1---------1---1-----
-----------------------------0-----------3-
---------------------0--------------------0
-----1------------0---0--------------------
-1-2-------------0-0------0----------------
------------0-------0-------0--0-----------
---------3-2-------------------------------
-0--------1--10-----------0---0------------
---------------0-------------------------0-

Generation = 10, Population = 289.
-0-1-3------0----0-0-0---------------------
0--1-00210---------------------------------
---00-----0---0----00----------------------
220-22201-0----0---------------------------
--0---2----40-----0---0-0------------------
3--0--0-0----1---0-------------------------
----0----0-3-0------0-0---0-------------0--
-1-------------0---------0-----------------
---------0-1-0----------0-------------0---0
0----------------------0---0---------------
-----------00---------------------------0--
0-0----0-------------0---0-----------------
----------0---0-0---------------0----------
0----0---0---------0---0------0------------
------------0-0---0-----------1-0-0---0----
-------0--------10---0------0---00---0-----
----------------1-------------1-0-0-0---0--
--------------01--10----------21-------0---
---------------------0----------0-----0---0
-------------0--00---------------0---0-----
-------------------0---00-0-------------0-0
-----------0---0------0---------------0----
---------------------01-1-1-0-----------0-0
--------0----0------0----2---0------1---10-
---------------0--------1-2-----------1--00
------0---0------------1--3----1-----000---
-----------------0-----------1----0-0--01--
--------0---------------00---1-----0---0-2-
---------0--------0--------1---00---0-0--2-
--------------------0---------2------0-1---
-------0-0-0----0---2--------0--0-0--------
-----0----------0-----------0---0--------0-
-------0-0-0------1----1---------00--2-----
---0---1------0-0-0-0---0----00----0-----1-
-----1---0---------------0-----0-------1--1
----------------0----------0---0-----3-2---
-0-0---1---------0--------0------0---0--0-0
---2---1----0---0---0---0---00-0---------1-
-1-2-4---1-0---0-0-0----0---1-------------0
-1---0-------1---------------1---0---------
-1-0---0-3-2-1-0-0-0------1--------------0-
---0----0--12--00---0---0---0--10----------
---------1-0-1-0-0---------------------0-0-

Generation = 12, Population = 264.
----0--4----0--1----0--0-------------------
---1-0-2-2-0---0---------------------------
---0----0--3----1--2----0------------------
----------2-1------------------------------
0--0----0--6----0--1----0---------------0--
-2-----0---2-------0-----0-----------------
-------0----1--1----0-------0--------------
------0-0----------------------------------
----0--0----0--1----0---------------0-----0
-1-----0-------0-------------0-------------
-----------2----0-------0-------0----------
--0-0-------------------------0------------
--------0--1----0---------------0-----0-0--
---0-------0----1----------------0---0-----
------------0-------0-------1-------0------
0-------------------------0-------1--------
------------0--------1------1-----0-0------
-------0----0-------1--------1---0---0---0-
----------------1-------0-0-----0----------
----------------------0-------0-------0----
-----------------1-------0------0----------
--------00------1-------00---0---0---1---0-
---------------1----0-1-----0-0----------1-
------------------0-------1-------0--2----1
-------------1-------0-------1----0--------
----0-------00------00---2--02---0---2---2-
---------0--------10----2-1-------0--0---2-
--------------------0-0-------1--1----02-4-
---------0-------1-------2----2-21----0----
-----0--0-------1-1---0-00---0-------0---1-
-----1-------00-------10------0--0---11--2-
----------------2-------0-0--0----00-2---0-
-------------0-------0-------1----2-1-----1
-0---1---0--0-0-----0-----0------1-------1-
-0-------0-------01-------11-1---10--3---1-
------------0------------1--1-12-1---5-4-3-
---------0-0-----0-------1------------1-0--
-----2---10--1--0-------------0------2-----
-3---6-------1-------00-------0--1---0---1-
--------0------------------0-1--1--0-----1-
-----2-0-----3-------0-------------------01
------0--3---3---1----------------0--------
-0-1-----1-------0--------0----------0---0-

*** Life<FredkinCell> 23x30 ***

Generation = 0, Population = 7.
------------------------------
------------------------------
------------------------------
------------------------------
------------------------------
------------------------------
--------------------------0---
------------------------------
------------------------------
------------------------------
------------------------------
---------0--------------------
------------------------------
----------------------------0-
---------------------------0--
------------------------------
------------------------------
----0--0----------------------
------------------------------
------------------0-----------
------------------------------
------------------------------
------------------------------

Generation = 5, Population = 86.
------------------------------
--------------------------0---
-------------------------0-0--
--------------------------0---
------------------------------
----------------------0-------
---------0-----------0-0------
--------0-0-----------0-------
---------0------------------0-
--------------------------0--0
-----0-------0-----------011--
----0-0-----0-0-----------00--
----00-0-----0----------0---0-
---0-00-0----------------0-0--
----0--0-0--------0---0-------
--------0-0------0-0---0-----0
0--0----00-0------0---------0-
-00-0--0-00-0----------------0
0--0----0--0--0-------0---0---
-------------0-0-----0-0---0--
----0--0------0-------0-------
---0-00-0---------------------
----0--0----------------------

Generation = 10, Population = 84.
------------------------0-0-0-
---------0--------------------
--------------------------0---
-------0---0----------------0-
------------------0-------00--
---------0----------------1---
----------------0---0---01--00
----0--0--------------------0-
------------------0-------01--
-00--11--0-------00-----------
------------------------------
---12--0-------01--1----1-----
-------------------0-----01---
-0---------------0--------1---
-----------------0---0-00--10-
--0---------0--0----0---0-----
-------------------0-----00---
1---0----0---22--00-------0---
------------------------------
--0-1---2--2---00---0---0-----
---------------------------0--
--0--33---0-------0-----------
-------------------------0-0-0

Generation = 15, Population = 289.
-----0-------0---0-------0--0-
----0-0-----0-0-0-0-----0-1--0
---000-----0-0---0-0---0-1-10-
--0120----0-0-----0-0-0-1-000-
-0000-0----0------10---1-003-1
0110-0-0---------1-0----102-1-
000-0-0-0--0----1-000---13-2--
-0-0-0-0-0--0--1-1-200-0--0---
-00-0-0-0-0--01-0-3-00--------
2-31-2-0-0-0-010-2-0--10------
-0-00-0-0-0---001-2---010-----
--2-51-0-0-----121---1-220----
---0--0-0-------001-0-2-0-1---
-------0---------10--1-010-0--
---00--0----0---0--1--05121-1-
--2210111----0-0-1--0-002010-0
-0000--000------0-0----102210-
2331----521--3---1-01---003-0-
000----0-0-00-0---01-1-1-3-1-1
-0----3-322330-1--0-1---000-1-
-00--0-00--0000-0001----00-1--
0-115-63----12200-00---0--1---
-0--000------00--0--0-0-------

Generation = 20, Population = 90.
-----------------------0-----0
0--12--10--0------------0-----
----------0-------1--------1--
-----1-------00-------0-------
--------------------------03--
----0--0--------------------1-
------0---------------0-------
-----0---0---------------0----
----------------------0-------
----2--0----0---0-------------
----------00-----13-----------
-0-------0----2------22------0
--------------------------12--
0--1---2--200---2------0----1-
-------0-----0-2-----2--------
--2--1---1--------0------11---
-----------------------2-----0
---21-61---01-3----1-------11-
-----------1-----0--------2---
0----33------0--------1-------
--------------------------42--
-------3--1---------0--0----1-
----------------------0-------

Generation = 25, Population = 239.
--0------0-00--0-012-----110--
-2-2------10-00-0-0--0-0--2---
-00--0---00-1--0-0--1---023---
0-0-2-0-0220----0-1-----1120--
-0---0---00-0---00-------11-2-
--1-------0--1-0--2-------3--0
-0-0-----012-----120-----323--
--0-------00-----1---------0--
----0-----0------1-00--0-0-2--
---1-2---0-0------30-23-0-2---
-00-0--------1---24-0--1---1--
2233-----0-01-2-3223------0-2-
-0--0---0-2-01-1-12-0---0--3--
-0-1-1-3--50-02-2-0--1-0--2---
---------3120--2-214-----453--
---3-----13-------0-------2---
--0---------0-------------3-01
-4-3-------0-3---3-1-4-0---231
-0--00---10-0----00-0---03--11
011-366-4554----1-0-----2-1---
-00--0---0--0---00--0--0-2--1-
---1-5---2-2-3-0--00-10-0-4--0
----0------------1201--0-023--

*** Life<FredkinCell> 47x11 ***

Generation = 0, Population = 2.
-----------
-----------
-----------
-----------
-----------
-----------
-----------
-----------
-----------
-----------
-----------
-----------
-----------
-----------
-----------
-----------
-----------
-----------
-----------
-----------
-----------
-----------
---------0-
-----------
-----------
-----------
-----------
-----------
-----------
-----------
-----------
-----------
-----------
-----------
-----------
-----------
-----------
-----------
-----------
-----------
-----------
--0--------
-----------
-----------
-----------
-----------
-----------

Generation = 3, Population = 27.
-----------
-----------
-----------
-----------
-----------
-----------
-----------
-----------
-----------
-----------
-----------
-----------
-----------
-----------
-----------
-----------
-----------
-----------
-----------
---------0-
--------0-0
-------0-0-
------0-0--
-------0-0-
--------0-0
---------0-
-----------
-----------
-----------
-----------
-----------
-----------
-----------
-----------
-----------
-----------
-----------
-----------
--0--------
-0-0-------
0-0-0------
-0-0-0-----
0-0-0------
-0-0-------
--0--------
-----------
-----------

Generation = 6, Population = 22.
-----------
-----------
-----------
-----------
-----------
-----------
-----------
-----------
-----------
-----------
-----------
-----------
-----------
-----------
-----------
-----------
---------0-
-----------
-------0---
-----------
-----0-----
-----------
---0-------
-----------
-----0-----
-----------
-------0---
-----------
---------0-
-----------
-----------
-----------
-----------
-----------
-----------
--0--------
-----------
0---0------
-----------
0-0---0----
-----------
0-0-0---0--
-----------
0-0---0----
-----------
0---0------
-----------

Generation = 9, Population = 31.
-----------
-----------
-----------
-----------
-----------
-----------
-----------
-----------
-----------
-----------
-----------
-----------
-----------
---------0-
--------0-0
---------0-
-----------
-----------
-----------
-----------
-----------
-0---0-----
0-0-0-0----
-0---0-----
-----------
-----------
-----------
-----------
-----------
---------0-
--------0-0
---------0-
--0--------
-0-0-------
--0--------
-----------
-----------
-----------
-----------
-----------
----0-----0
---0-0---0-
----0-----0
-----------
--0--------
-0-0-------
--0--------

Generation = 12, Population = 28.
-----------
-----------
-----------
-----------
-----------
-----------
-----------
-----------
-----------
-----------
---------0-
-----------
-----------
-----------
-----0---0-
-----------
-----------
-----------
-0---0---0-
-----------
-----------
-----------
-----0---0-
-----------
-----------
-----------
-0---0---0-
-----------
-----------
--0--------
-----0---0-
-----------
-----------
0-----0----
---------0-
-----------
-----------
--0-0-----0
-----------
-----------
-----------
0-0---0----
-----------
-----------
-----------
0-0-0-0---0
-----------

Generation = 15, Population = 73.
-----------
-----------
-----------
-----------
-----------
-----------
-----------
---------0-
--------0-0
-------0-0-
------0-0--
-----0-0---
----0-0----
---0-0-----
--0-0------
-0-0-------
0-0--------
-0---------
-----------
-0---------
0-0--------
-0-0-------
--0-0------
-0-0-------
0-0--------
-0---------
--0--------
---0-------
----0------
-----0-----
------0----
-------0---
--------0--
---------0-
----------0
-----------
----------0
---------0-
--0-----0--
-0-0---0-0-
0-0-0-0-0-0
-0-0---0-0-
--0-0---0-0
---0-0---0-
----0-0----
-----0-0-0-
------0---0

Generation = 18, Population = 27.
-----------
-----------
-----------
-----------
---------0-
-----------
-------0---
-----------
---------0-
-----------
-----------
-----------
-----------
-----------
-----------
-----------
-----------
-----------
-----------
-----------
-0---0-----
-----------
-------0---
--0--------
-0---0-----
0---0------
-----------
--0--------
-----------
-----------
-----------
-----------
-----------
-----------
-----------
--0--------
---------0-
0---0------
-------0---
--0-0-----0
---------0-
--0---0-0-0
-----------
----0-----0
-----------
-----------
-----------

Generation = 21, Population = 87.
-----------
---------0-
--------0-0
---------0-
-----------
-----0---0-
----0-0-0-0
-----0---0-
-----------
---------0-
--------0-0
---------0-
-----------
-----------
-----------
-----------
-----------
-0---0-----
0-0-0-0----
-0---0-----
--0--------
-0-0-0---0-
--0-0-0-0-0
-----0---0-
0-----0----
-------0---
--0-0------
-0---0-----
--0--------
-0-0-------
--0--------
-----------
--0--------
-0-0-----0-
--0-----0-0
---------0-
0---0-0---0
-0-0-0-0---
0-------0--
-----0---0-
0-0---0----
---0-0-0-0-
0-0---0-0-0
---------0-
----0-----0
---0-0---0-
----0-----0

Generation = 24, Population = 28.
---------0-
-----------
-----------
-----------
-----------
-----------
-0---0-----
-----------
-----------
-----------
-----------
-----------
-----------
-----------
-0---0---0-
-----------
-----------
--0--------
-----------
-----------
-----------
-----------
-0---0-----
-----------
-----------
----0-----0
-----------
-----------
-----------
--0--------
-0---0---0-
-----------
-----------
--0-0-----0
-----------
-----------
-----------
----0-----0
-0---0-----
-----------
-----------
----0-----0
-----------
-----------
-----------
--0-0-----0
---------0-

*** Life<FredkinCell> 5x18 ***

Generation = 0, Population = 23.
0------0--0-------
---0---000-000-0-0
---0--0-0---------
--0---------00---0
-0------0---0-0---

Generation = 6, Population = 48.
--222-2-012050----
1--2-3-211-42-131-
2-1-3122--011-----
--3-002-0------40-
021310---10-4-0-2-

Generation = 12, Population = 50.
------23232---2--3
-6262---31---3-45-
---63-4633442-1---
303----1111--41+13
-345302-05--50-03-

Generation = 18, Population = 38.
126---4--66--4-204
48-+---4-----4----
73-7-3------62-52-
-334---3-21----+-4
--75-----63--13--4

Generation = 24, Population = 47.
-49-6---3+--+83-1-
8-5+4-2---3--43--5
+5-9676-5--7--468-
4----4-324---7--35
--7-61---853+27--5
